<?xml version="1.0" encoding="utf-8"?>
<!-- Generator: Adobe Illustrator 21.1.0, SVG Export Plug-In . SVG Version: 6.00 Build 0)  -->
<svg version="1.1" id="Camada_1" xmlns="http://www.w3.org/2000/svg" xmlns:xlink="http://www.w3.org/1999/xlink" x="0px" y="0px"
	 viewBox="0 0 231.3 29.3" style="enable-background:new 0 0 231.3 29.3;" xml:space="preserve">
<style type="text/css">
	.st0{fill:#ECEADF;stroke:#FFFFFF;stroke-miterlimit:10;}
	.st1{fill:#ECEADF;stroke:#FFFFFF;stroke-linecap:round;stroke-linejoin:round;stroke-miterlimit:10;}
	.st2{fill:#353837;}
</style>
<title>Ativo 3</title>
<g>
	<line class="st0" x1="230.8" y1="15.2" x2="0.5" y2="15.2"/>
	<path class="st1" d="M186.5,0.5L46.9,0.8c-5.4,5.5-8.5,8.6-14,14v0c5.5,5.4,8.6,8.5,14,14l139.6-0.3c5.4-5.5,8.5-8.6,14-14v0
		C195.1,9,191.9,5.9,186.5,0.5z"/>
	<polygon class="st2" points="185,11.3 181,18.2 177,11.3 	"/>
</g>
</svg>
