<?xml version="1.0" encoding="utf-8"?>
<!-- Generator: Adobe Illustrator 21.1.0, SVG Export Plug-In . SVG Version: 6.00 Build 0)  -->
<svg version="1.1" id="Camada_1" xmlns="http://www.w3.org/2000/svg" xmlns:xlink="http://www.w3.org/1999/xlink" x="0px" y="0px"
	 viewBox="0 0 28 28" style="enable-background:new 0 0 28 28;" xml:space="preserve">
<style type="text/css">
	.st0{fill:#EBE7DD;}
</style>
<title>Ativo 6</title>
<g id="Camada_2">
	<g id="Layer_1">
		<path class="st0" d="M14,28C6.3,28,0,21.7,0,14S6.3,0,14,0s14,6.3,14,14S21.7,28,14,28z M14,0.6C6.6,0.6,0.6,6.6,0.6,14
			c0,7.4,6,13.4,13.4,13.4c7.4,0,13.4-6,13.4-13.3C27.4,6.6,21.4,0.6,14,0.6z"/>
		<path class="st0" d="M19.3,20.2H6.5c-0.2,0-0.3-0.1-0.3-0.3c0,0,0-0.1,0-0.1l2.6-8.2c0-0.1,0.2-0.2,0.3-0.2h12.8
			c0.2,0,0.3,0.1,0.3,0.3c0,0,0,0.1,0,0.1L19.6,20C19.6,20.1,19.4,20.2,19.3,20.2z M7,19.6h12.1l2.4-7.6H9.4L7,19.6z"/>
		<path class="st0" d="M6.1,20.2c-0.2,0-0.3-0.1-0.3-0.3V8.7c0-0.5,0.4-0.9,0.9-0.9H11c0.5,0,0.9,0.4,0.9,0.9l0,0v0.8h6.9
			c0.2,0,0.3,0.1,0.3,0.3c0,0.2-0.1,0.3-0.3,0.3c0,0,0,0,0,0h-7.1c-0.2,0-0.3-0.1-0.3-0.3v0V8.7c0-0.2-0.1-0.3-0.3-0.3c0,0,0,0,0,0
			H6.7c-0.2,0-0.3,0.1-0.3,0.3l0,0v11.2C6.4,20.1,6.2,20.2,6.1,20.2z"/>
	</g>
</g>
</svg>
