<?xml version="1.0" encoding="utf-8"?>
<!-- Generator: Adobe Illustrator 21.1.0, SVG Export Plug-In . SVG Version: 6.00 Build 0)  -->
<svg version="1.1" id="Camada_1" xmlns="http://www.w3.org/2000/svg" xmlns:xlink="http://www.w3.org/1999/xlink" x="0px" y="0px"
	 viewBox="0 0 27.9 27.9" style="enable-background:new 0 0 27.9 27.9;" xml:space="preserve">
<style type="text/css">
	.st0{fill:#921F1F;}
</style>
<title>Ativo 4</title>
<g id="Camada_2">
	<g id="Layer_1">
		<path class="st0" d="M14,27.9c-7.7,0-14-6.3-14-14s6.3-14,14-14s14,6.3,14,14S21.7,27.9,14,27.9z M14,0.6
			C6.6,0.6,0.6,6.6,0.6,13.9s5.9,13.4,13.3,13.4c7.4,0,13.3-5.9,13.4-13.3C27.3,6.6,21.4,0.6,14,0.6z"/>
		<path class="st0" d="M16.2,21.6c-0.2,0-0.3-0.1-0.3-0.3v-3.7c0-0.2,0.1-0.3,0.3-0.3h3.7c0.2,0,0.3,0.1,0.3,0.3
			c0,0.2-0.1,0.3-0.3,0.3h-3.4v3.4C16.5,21.4,16.4,21.6,16.2,21.6z"/>
		<path class="st0" d="M16.2,21.6H9.8c-0.2,0-0.3-0.1-0.3-0.3V8.5c0-0.2,0.1-0.3,0.3-0.3h0h10.1c0.2,0,0.3,0.1,0.3,0.3v9
			c0,0.1,0,0.2-0.1,0.2l-3.7,3.7C16.3,21.5,16.3,21.6,16.2,21.6z M10.1,20.9h6l3.5-3.5V8.8h-9.5C10.1,8.8,10.1,20.9,10.1,20.9z"/>
		<path class="st0" d="M15.5,11.2h-3.7c-0.2,0-0.3-0.1-0.3-0.3s0.1-0.3,0.3-0.3c0,0,0,0,0,0h3.7c0.2,0,0.3,0.1,0.3,0.3
			S15.7,11.2,15.5,11.2C15.5,11.2,15.5,11.2,15.5,11.2z"/>
		<path class="st0" d="M17.9,12.7h-6.1c-0.2,0-0.3-0.1-0.3-0.3s0.1-0.3,0.3-0.3c0,0,0,0,0,0h6.1c0.2,0,0.3,0.1,0.3,0.3
			C18.2,12.5,18.1,12.7,17.9,12.7C17.9,12.7,17.9,12.7,17.9,12.7z"/>
		<path class="st0" d="M17.9,14.2h-6.1c-0.2,0-0.3-0.1-0.3-0.3s0.1-0.3,0.3-0.3c0,0,0,0,0,0h6.1c0.2,0,0.3,0.1,0.3,0.3
			C18.2,14,18.1,14.2,17.9,14.2C17.9,14.2,17.9,14.2,17.9,14.2z"/>
		<path class="st0" d="M14.4,15.7h-2.5c-0.2,0-0.3-0.1-0.3-0.3s0.1-0.3,0.3-0.3c0,0,0,0,0,0h2.5c0.2,0,0.3,0.1,0.3,0.3
			S14.6,15.7,14.4,15.7C14.4,15.7,14.4,15.7,14.4,15.7z"/>
		<path class="st0" d="M8,20.1c-0.2,0-0.3-0.1-0.3-0.3V7.3c0-0.5,0.4-0.9,0.9-0.9h9.5c0.2,0,0.3,0.1,0.3,0.3c0,0.2-0.1,0.3-0.3,0.3
			c0,0,0,0,0,0H8.6C8.5,7,8.3,7.1,8.3,7.3c0,0,0,0,0,0v12.5C8.3,20,8.2,20.1,8,20.1L8,20.1z"/>
	</g>
</g>
</svg>
