<?xml version="1.0" encoding="utf-8"?>
<!-- Generator: Adobe Illustrator 21.1.0, SVG Export Plug-In . SVG Version: 6.00 Build 0)  -->
<svg version="1.1" id="Camada_1" xmlns="http://www.w3.org/2000/svg" xmlns:xlink="http://www.w3.org/1999/xlink" x="0px" y="0px"
	 viewBox="0 0 65 130" style="enable-background:new 0 0 65 130;" xml:space="preserve">
<style type="text/css">
	.st0{enable-background:new    ;}
	.st1{fill:#969798;}
	.st2{clip-path:url(#SVGID_2_);}
	.st3{fill:#959697;}
	.st4{fill:#FFFFFF;}
	.st5{fill:#921F1F;}
</style>
<title>Ativo 1</title>
<g>
	<g>
		<g class="st0">
			<path class="st1" d="M15.3,117h-0.8v-7.1h3.9v0.7h-3.1v2.6h2.9v0.7h-2.9C15.3,113.9,15.3,117,15.3,117z"/>
			<path class="st1" d="M19.6,117v-7.1h0.8v7.1H19.6z"/>
			<path class="st1" d="M22.4,117v-7.1h0.8v6.4h3.1v0.8h-3.9V117z"/>
			<path class="st1" d="M29.7,117h-0.8v-6.4h-2.2v-0.7H32v0.7h-2.2L29.7,117L29.7,117z"/>
			<path class="st1" d="M33.8,114v3H33v-7.1h1.9c0.9,0,1.5,0.2,1.9,0.5s0.6,0.8,0.6,1.5c0,0.9-0.5,1.6-1.4,1.9l2,3.2h-1l-1.7-3H33.8
				z M33.8,113.3H35c0.6,0,1-0.1,1.3-0.3c0.3-0.2,0.4-0.6,0.4-1c0-0.5-0.1-0.8-0.4-1s-0.7-0.3-1.3-0.3h-1.1v2.6H33.8z"/>
			<path class="st1" d="M45.3,113.4c0,1.1-0.3,2-0.9,2.7c-0.6,0.7-1.4,1-2.4,1s-1.8-0.3-2.4-1c-0.6-0.6-0.8-1.5-0.8-2.7
				s0.3-2.1,0.9-2.7c0.6-0.6,1.4-1,2.4-1s1.8,0.3,2.4,1C45,111.4,45.3,112.3,45.3,113.4z M39.6,113.4c0,1,0.2,1.7,0.6,2.2
				c0.4,0.5,1,0.7,1.8,0.7s1.4-0.2,1.8-0.7c0.4-0.5,0.6-1.2,0.6-2.2s-0.2-1.7-0.6-2.2c-0.4-0.5-1-0.7-1.8-0.7s-1.4,0.2-1.8,0.7
				C39.8,111.7,39.6,112.5,39.6,113.4z"/>
			<path class="st1" d="M50.8,115.1c0,0.6-0.2,1.1-0.7,1.5s-1.1,0.5-1.8,0.5c-0.8,0-1.5-0.1-1.9-0.3V116c0.3,0.1,0.6,0.2,0.9,0.3
				c0.3,0.1,0.7,0.1,1,0.1c0.5,0,1-0.1,1.2-0.3c0.3-0.2,0.4-0.5,0.4-0.9c0-0.2,0-0.5-0.1-0.6c-0.1-0.2-0.3-0.3-0.5-0.4
				s-0.6-0.3-1.1-0.5c-0.7-0.2-1.1-0.5-1.4-0.8c-0.3-0.3-0.4-0.8-0.4-1.3c0-0.6,0.2-1,0.6-1.3c0.4-0.3,1-0.5,1.6-0.5
				c0.7,0,1.3,0.1,1.9,0.4l-0.3,0.7c-0.6-0.2-1.2-0.4-1.7-0.4c-0.4,0-0.8,0.1-1,0.3c-0.2,0.2-0.4,0.5-0.4,0.8c0,0.2,0,0.5,0.1,0.6
				c0.1,0.2,0.2,0.3,0.5,0.4c0.2,0.1,0.5,0.3,1,0.4c0.7,0.3,1.3,0.6,1.5,0.9C50.7,114.2,50.8,114.6,50.8,115.1z"/>
		</g>
		<path class="st1" d="M42.9,93h-7.4c-0.2,0-0.3-0.1-0.4-0.2l-2-3c-0.2-0.2-0.1-0.5,0.1-0.7c0.2-0.2,0.5-0.1,0.7,0.1l1.8,2.8H43
			c0.3,0,0.5,0.2,0.5,0.5C43.5,92.8,43.2,92.9,42.9,93C42.9,92.9,42.9,92.9,42.9,93L42.9,93z"/>
		<path class="st1" d="M30.6,84.8c-0.2,0-0.3-0.1-0.4-0.2l-1.7-2.9h-6.9c-0.3,0-0.5-0.2-0.5-0.5s0.2-0.5,0.5-0.5h7.1
			c0.2,0,0.3,0.1,0.4,0.2L31,84c0.1,0.2,0.1,0.5-0.2,0.7C30.8,84.8,30.8,84.8,30.6,84.8z"/>
		<path class="st1" d="M28.8,93h-7.1c-0.3,0-0.5-0.2-0.5-0.5s0.2-0.5,0.5-0.5h6.9l6.6-11c0.1-0.1,0.2-0.2,0.4-0.2H43
			c0.3,0,0.5,0.2,0.5,0.5s-0.2,0.5-0.5,0.5h-7.2l-6.6,11C29.1,92.9,28.9,93,28.8,93L28.8,93z"/>
		<path class="st1" d="M39.4,85.6c-0.3,0-0.5-0.2-0.5-0.5c0-0.1,0.1-0.3,0.1-0.3l3.5-3.5L39,77.8c-0.2-0.2-0.2-0.5,0-0.7
			s0.5-0.2,0.7,0l3.9,3.8c0.2,0.2,0.2,0.5,0,0.7l0,0l-3.9,3.9C39.7,85.6,39.5,85.6,39.4,85.6L39.4,85.6z"/>
		<path class="st1" d="M39.4,96.8c-0.3,0-0.5-0.2-0.5-0.5c0-0.1,0.1-0.3,0.1-0.3l3.5-3.5L39,88.9c-0.2-0.2-0.2-0.5,0-0.7
			s0.5-0.2,0.7,0l3.9,3.9c0.2,0.2,0.2,0.5,0,0.7l0,0l-3.9,3.9C39.7,96.7,39.5,96.8,39.4,96.8L39.4,96.8z"/>
	</g>
	<g>
		<g>
			<defs>
				<rect id="SVGID_1_" x="20.8" width="22.5" height="19.8"/>
			</defs>
			<clipPath id="SVGID_2_">
				<use xlink:href="#SVGID_1_"  style="overflow:visible;"/>
			</clipPath>
			<g class="st2">
				<path class="st3" d="M39.7-29.2v29.1c-3.1,3.1-4.8,4.8-7.9,7.9l0,0C28.7,4.7,27,3,23.9-0.1v-29.1c3.1-3.1,4.8-4.8,7.9-7.9l0,0
					C34.8-34.1,36.6-32.3,39.7-29.2z"/>
				<g>
					<polygon class="st4" points="28.1,-19.4 29,-19.8 31.8,-14.7 29,-9.5 28.1,-9.9 30.6,-14.7 30.6,-14.7 					"/>
					<polygon class="st4" points="31.1,-19.4 32,-19.8 34.7,-14.7 32,-9.5 31.1,-9.9 33.6,-14.7 33.6,-14.7 					"/>
				</g>
			</g>
		</g>
	</g>
	<g>
		<g class="st0">
			<path class="st5" d="M15.3,52h-0.8v-7.1h3.9v0.7h-3.1v2.6h2.9v0.7h-2.9C15.3,48.9,15.3,52,15.3,52z"/>
			<path class="st5" d="M19.6,52v-7.1h0.8V52H19.6z"/>
			<path class="st5" d="M22.4,52v-7.1h0.8v6.4h3.1V52H22.4z"/>
			<path class="st5" d="M29.7,52h-0.8v-6.4h-2.2v-0.7H32v0.7h-2.2L29.7,52L29.7,52z"/>
			<path class="st5" d="M33.8,49v3H33v-7.1h1.9c0.9,0,1.5,0.2,1.9,0.5c0.4,0.3,0.6,0.8,0.6,1.5c0,0.9-0.5,1.6-1.4,1.9l2,3.2h-1
				l-1.7-3H33.8z M33.8,48.3H35c0.6,0,1-0.1,1.3-0.3c0.3-0.2,0.4-0.6,0.4-1c0-0.5-0.1-0.8-0.4-1c-0.3-0.2-0.7-0.3-1.3-0.3h-1.1v2.6
				H33.8z"/>
			<path class="st5" d="M45.3,48.4c0,1.1-0.3,2-0.9,2.7c-0.6,0.7-1.4,1-2.4,1s-1.8-0.3-2.4-1c-0.6-0.6-0.8-1.6-0.8-2.7
				c0-1.2,0.3-2.1,0.9-2.7c0.6-0.6,1.4-1,2.4-1s1.8,0.3,2.4,1C45,46.4,45.3,47.3,45.3,48.4z M39.6,48.4c0,1,0.2,1.7,0.6,2.2
				s1,0.7,1.8,0.7s1.4-0.2,1.8-0.7c0.4-0.5,0.6-1.2,0.6-2.2s-0.2-1.7-0.6-2.2s-1-0.7-1.8-0.7s-1.4,0.2-1.8,0.7S39.6,47.5,39.6,48.4z
				"/>
			<path class="st5" d="M50.8,50.1c0,0.6-0.2,1.1-0.7,1.5s-1.1,0.5-1.8,0.5c-0.8,0-1.5-0.1-1.9-0.3V51c0.3,0.1,0.6,0.2,0.9,0.3
				c0.3,0.1,0.7,0.1,1,0.1c0.5,0,1-0.1,1.2-0.3c0.2-0.2,0.4-0.5,0.4-0.9c0-0.2,0-0.5-0.1-0.6c-0.1-0.2-0.3-0.3-0.5-0.4
				c-0.2-0.1-0.6-0.3-1.1-0.5c-0.7-0.2-1.1-0.5-1.4-0.8c-0.3-0.3-0.4-0.8-0.4-1.3c0-0.6,0.2-1,0.6-1.3c0.4-0.3,1-0.5,1.6-0.5
				c0.7,0,1.3,0.1,1.9,0.4l-0.3,0.7c-0.6-0.2-1.2-0.4-1.7-0.4c-0.4,0-0.8,0.1-1,0.3c-0.2,0.2-0.4,0.5-0.4,0.8c0,0.2,0,0.5,0.1,0.6
				c0.1,0.2,0.2,0.3,0.5,0.4c0.2,0.1,0.5,0.3,1,0.4c0.7,0.3,1.3,0.6,1.5,0.9C50.7,49.2,50.8,49.6,50.8,50.1z"/>
		</g>
		<path class="st5" d="M42.9,28h-7.4c-0.2,0-0.3-0.1-0.4-0.2l-2-3c-0.2-0.2-0.1-0.5,0.1-0.7c0.2-0.2,0.5-0.1,0.7,0.1l1.8,2.8H43
			c0.3,0,0.5,0.2,0.5,0.5S43.2,27.9,42.9,28C42.9,27.9,42.9,27.9,42.9,28L42.9,28z"/>
		<path class="st5" d="M30.6,19.8c-0.2,0-0.3-0.1-0.4-0.2l-1.7-2.9h-6.9c-0.3,0-0.5-0.2-0.5-0.5c0-0.3,0.2-0.5,0.5-0.5h7.1
			c0.2,0,0.3,0.1,0.4,0.2L31,19c0.1,0.2,0.1,0.5-0.2,0.7C30.8,19.8,30.8,19.8,30.6,19.8z"/>
		<path class="st5" d="M28.8,28h-7.1c-0.3,0-0.5-0.2-0.5-0.5s0.2-0.5,0.5-0.5h6.9l6.6-11c0.1-0.1,0.2-0.2,0.4-0.2H43
			c0.3,0,0.5,0.2,0.5,0.5s-0.2,0.5-0.5,0.5h-7.2l-6.6,11C29.1,27.9,28.9,28,28.8,28L28.8,28z"/>
		<path class="st5" d="M39.4,20.6c-0.3,0-0.5-0.2-0.5-0.5c0-0.1,0.1-0.3,0.1-0.3l3.5-3.5L39,12.8c-0.2-0.2-0.2-0.5,0-0.7
			s0.5-0.2,0.7,0l3.9,3.8c0.2,0.2,0.2,0.5,0,0.7l0,0l-3.9,3.9C39.7,20.6,39.5,20.6,39.4,20.6L39.4,20.6z"/>
		<path class="st5" d="M39.4,31.8c-0.3,0-0.5-0.2-0.5-0.5c0-0.1,0.1-0.3,0.1-0.3l3.5-3.5L39,23.9c-0.2-0.2-0.2-0.5,0-0.7
			s0.5-0.2,0.7,0l3.9,3.9c0.2,0.2,0.2,0.5,0,0.7l0,0l-3.9,3.9C39.7,31.7,39.5,31.8,39.4,31.8L39.4,31.8z"/>
	</g>
</g>
</svg>
