<?xml version="1.0" encoding="utf-8"?>
<!-- Generator: Adobe Illustrator 21.1.0, SVG Export Plug-In . SVG Version: 6.00 Build 0)  -->
<svg version="1.1" id="Camada_1" xmlns="http://www.w3.org/2000/svg" xmlns:xlink="http://www.w3.org/1999/xlink" x="0px" y="0px"
	 viewBox="0 0 27.9 84" style="enable-background:new 0 0 27.9 84;" xml:space="preserve">
<style type="text/css">
	.st0{fill:#EBE7DD;}
	.st1{fill:#393B3D;}
	.st2{fill:#921F1F;}
</style>
<title>Ativo 7</title>
<g id="Camada_2">
	<g id="Layer_1">
		<path class="st0" d="M14,84C6.3,84,0,77.7,0,70s6.3-14,14-14s14,6.3,14,14S21.7,84,14,84z M14,56.7c-7.4,0-13.4,6-13.4,13.3
			s5.9,13.4,13.3,13.4s13.3-5.9,13.4-13.3C27.3,62.7,21.4,56.7,14,56.7z"/>
		<path class="st0" d="M14,77.3c-0.1,0-0.1,0-0.2-0.1C13.6,77,8,72.2,8,68.9c0-3.3,2.7-6.1,6.1-6.1s6.1,2.7,6.1,6.1
			c0,3.3-5.6,8.1-5.9,8.3C14.1,77.3,14.1,77.3,14,77.3z M14,63.5c-3,0-5.5,2.4-5.5,5.4l0,0c0,2.7,4.4,6.8,5.4,7.7
			c1-0.9,5.4-5,5.4-7.6C19.4,65.9,17,63.5,14,63.5z"/>
		<path class="st0" d="M14,71.7c-1.5,0-2.8-1.2-2.8-2.8s1.3-2.8,2.8-2.8s2.8,1.2,2.8,2.8C16.8,70.4,15.5,71.7,14,71.7z M14,66.7
			c-1.2,0-2.2,1-2.2,2.2c0,1.2,1,2.2,2.2,2.2s2.2-1,2.2-2.2l0,0C16.1,67.7,15.2,66.7,14,66.7L14,66.7z"/>
	</g>
</g>
<g id="Camada_2_1_">
	<g id="Layer_1_1_">
		<path class="st1" d="M14,56C6.3,56,0,49.8,0,42s6.3-14,14-14s14,6.3,14,14S21.7,56,14,56z M14,28.7C6.6,28.7,0.6,34.7,0.6,42
			s5.9,13.4,13.3,13.4c7.4,0,13.3-5.9,13.4-13.3C27.3,34.7,21.4,28.7,14,28.7z"/>
		<path class="st1" d="M14,49.3c-0.1,0-0.1,0-0.2-0.1C13.6,49,8,44.2,8,40.9c0-3.3,2.7-6,6.1-6s6.1,2.7,6.1,6c0,3.3-5.6,8.1-5.9,8.3
			C14.1,49.3,14.1,49.3,14,49.3z M14,35.5c-3,0-5.5,2.4-5.5,5.4c0,0,0,0,0,0c0,2.7,4.4,6.8,5.4,7.7c1-0.9,5.4-5,5.4-7.7
			C19.4,37.9,17,35.5,14,35.5z"/>
		<path class="st1" d="M14,43.7c-1.5,0-2.8-1.2-2.8-2.8c0-1.5,1.2-2.8,2.8-2.8s2.8,1.2,2.8,2.8C16.8,42.4,15.5,43.7,14,43.7z
			 M14,38.7c-1.2,0-2.2,1-2.2,2.2s1,2.2,2.2,2.2s2.2-1,2.2-2.2l0,0C16.1,39.7,15.2,38.7,14,38.7L14,38.7z"/>
	</g>
</g>
<g id="Camada_2_2_">
	<g id="Layer_1_2_">
		<path class="st2" d="M14,28C6.3,28,0,21.7,0,14S6.3,0,14,0s14,6.3,14,14S21.7,28,14,28z M14,0.7C6.6,0.7,0.6,6.7,0.6,14
			s5.9,13.4,13.3,13.4s13.3-5.9,13.4-13.3C27.3,6.7,21.4,0.7,14,0.7z"/>
		<path class="st2" d="M14,21.3c-0.1,0-0.1,0-0.2-0.1C13.6,21,8,16.2,8,12.9s2.7-6.1,6.1-6.1s6.1,2.7,6.1,6.1c0,3.3-5.6,8.1-5.9,8.3
			C14.1,21.3,14.1,21.3,14,21.3z M14,7.5c-3,0-5.5,2.4-5.5,5.4l0,0c0,2.7,4.4,6.8,5.4,7.7c1-0.9,5.4-5,5.4-7.6
			C19.4,9.9,17,7.5,14,7.5z"/>
		<path class="st2" d="M14,15.7c-1.5,0-2.8-1.2-2.8-2.8s1.3-2.8,2.8-2.8s2.8,1.2,2.8,2.8C16.8,14.4,15.5,15.7,14,15.7z M14,10.7
			c-1.2,0-2.2,1-2.2,2.2s1,2.2,2.2,2.2s2.2-1,2.2-2.2l0,0C16.1,11.7,15.2,10.7,14,10.7L14,10.7z"/>
	</g>
</g>
</svg>
